5133	RBX	5111	1	1	loop
5111	RBX	5111	0	0	complete
4257	RDI	4257	0	4473	complete
4250	RCX	4250	0	5056	complete
4243	R8	4243	0	5168	complete
4852	RSI	4852	0	8197	complete
4980	RSI	4980	0	8220	complete
5062	R15	5062	0	15672	complete
5085	RBP	5085	0	15688	complete
4950	RDX	4950	0	15712	complete
4822	RDX	4822	0	15736	complete
4730	RDX	4730	0	15760	complete
4662	RDX	4662	0	16456	complete
4272	RDI	4272	0	16464	complete
4279	RAX	4279	0	16464	complete
4320	RDI	4320	0	16464	complete
4327	RSI	4327	0	16464	complete
4859	RDI	4859	0	16512	complete
4987	RDI	4987	0	16512	complete
4650	RDI	4650	0	16785	complete
4669	RSI	4669	0	16785	complete
4104	RAX	0	1	0	incomplete
4291	RAX	0	1	0	incomplete
4356	RAX	0	1	0	incomplete
4474	RBP	0	1	0	incomplete
4548	RAX	0	1	0	incomplete
4552	RAX	0	1	0	incomplete
4555	RDX	0	1	0	incomplete
4575	RAX	0	1	0	incomplete
4579	RAX	0	1	0	incomplete
4582	RDX	0	1	0	incomplete
4622	RBP	0	1	0	incomplete
4717	RBP	0	1	0	incomplete
4737	RAX	0	1	0	incomplete
4744	RAX	0	1	0	incomplete
4754	RAX	0	1	0	incomplete
4769	RBP	0	1	0	incomplete
4785	RBP	0	1	0	incomplete
4829	RAX	0	1	0	incomplete
4841	RBP	0	1	0	incomplete
4892	RAX	0	1	0	incomplete
4899	RAX	0	1	0	incomplete
4913	RBP	0	1	0	incomplete
4957	RAX	0	1	0	incomplete
4969	RBP	0	1	0	incomplete
5020	RAX	0	1	0	incomplete
5027	RAX	0	1	0	incomplete
