4128	0	0	.cfi_startproc	0	0	0	0
4128	0	1	.cfi_lsda	0	1	255	0
4128	0	2	.cfi_personality	0	1	255	0
4128	0	3	.cfi_def_cfa	0	2	7	8
4128	0	4	.cfi_offset	0	2	16	-8
4128	0	5	.cfi_def_cfa_offset	0	1	16	0
4128	6	0	.cfi_def_cfa_offset	0	1	24	0
4144	0	0	.cfi_escape	8478	13	0	0
4214	10	0	.cfi_endproc	0	0	0	0
4224	0	0	.cfi_startproc	0	0	0	0
4224	0	1	.cfi_lsda	0	1	255	0
4224	0	2	.cfi_personality	0	1	255	0
4224	0	3	.cfi_def_cfa	0	2	7	8
4224	0	4	.cfi_offset	0	2	16	-8
4224	4	0	.cfi_undefined	0	1	16	0
4270	1	0	.cfi_endproc	0	0	0	0
4473	0	0	.cfi_startproc	0	0	0	0
4473	0	1	.cfi_lsda	0	1	255	0
4473	0	2	.cfi_personality	0	1	255	0
4473	0	3	.cfi_def_cfa	0	2	7	8
4473	0	4	.cfi_offset	0	2	16	-8
4473	1	0	.cfi_def_cfa_offset	0	1	16	0
4473	1	1	.cfi_offset	0	2	6	-16
4473	4	0	.cfi_def_cfa_register	0	1	6	0
4619	1	0	.cfi_def_cfa	0	2	7	8
4619	2	0	.cfi_endproc	0	0	0	0
4621	0	0	.cfi_startproc	0	0	0	0
4621	0	1	.cfi_lsda	0	1	255	0
4621	0	2	.cfi_personality	0	1	255	0
4621	0	3	.cfi_def_cfa	0	2	7	8
4621	0	4	.cfi_offset	0	2	16	-8
4621	1	0	.cfi_def_cfa_offset	0	1	16	0
4621	1	1	.cfi_offset	0	2	6	-16
4621	4	0	.cfi_def_cfa_register	0	1	6	0
4691	2	0	.cfi_def_cfa	0	2	7	8
4691	3	0	.cfi_endproc	0	0	0	0
4694	0	0	.cfi_startproc	0	0	0	0
4694	0	1	.cfi_lsda	0	1	255	0
4694	0	2	.cfi_personality	0	1	255	0
4694	0	3	.cfi_def_cfa	0	2	7	8
4694	0	4	.cfi_offset	0	2	16	-8
4694	1	0	.cfi_def_cfa_offset	0	1	16	0
4694	1	1	.cfi_offset	0	2	6	-16
4694	4	0	.cfi_def_cfa_register	0	1	6	0
4713	1	0	.cfi_def_cfa	0	2	7	8
4713	2	0	.cfi_endproc	0	0	0	0
4716	0	0	.cfi_startproc	0	0	0	0
4716	0	1	.cfi_lsda	0	1	255	0
4716	0	2	.cfi_personality	0	1	255	0
4716	0	3	.cfi_def_cfa	0	2	7	8
4716	0	4	.cfi_offset	0	2	16	-8
4716	1	0	.cfi_def_cfa_offset	0	1	16	0
4716	1	1	.cfi_offset	0	2	6	-16
4716	4	0	.cfi_def_cfa_register	0	1	6	0
4716	50	0	.cfi_def_cfa	0	2	7	8
4716	51	0	.cfi_endproc	0	0	0	0
4768	0	0	.cfi_startproc	0	0	0	0
4768	0	1	.cfi_lsda	0	1	255	0
4768	0	2	.cfi_personality	0	1	255	0
4768	0	3	.cfi_def_cfa	0	2	7	8
4768	0	4	.cfi_offset	0	2	16	-8
4768	1	0	.cfi_def_cfa_offset	0	1	16	0
4768	1	1	.cfi_offset	0	2	6	-16
4768	4	0	.cfi_def_cfa_register	0	1	6	0
4768	14	0	.cfi_def_cfa	0	2	7	8
4768	15	0	.cfi_endproc	0	0	0	0
4784	0	0	.cfi_startproc	0	0	0	0
4784	0	1	.cfi_lsda	0	1	255	0
4784	0	2	.cfi_personality	0	1	255	0
4784	0	3	.cfi_def_cfa	0	2	7	8
4784	0	4	.cfi_offset	0	2	16	-8
4784	1	0	.cfi_def_cfa_offset	0	1	16	0
4784	1	1	.cfi_offset	0	2	6	-16
4784	4	0	.cfi_def_cfa_register	0	1	6	0
4822	16	0	.cfi_def_cfa	0	2	7	8
4822	17	0	.cfi_endproc	0	0	0	0
4840	0	0	.cfi_startproc	0	0	0	0
4840	0	1	.cfi_lsda	0	1	255	0
4840	0	2	.cfi_personality	0	1	255	0
4840	0	3	.cfi_def_cfa	0	2	7	8
4840	0	4	.cfi_offset	0	2	16	-8
4840	1	0	.cfi_def_cfa_offset	0	1	16	0
4840	1	1	.cfi_offset	0	2	6	-16
4840	4	0	.cfi_def_cfa_register	0	1	6	0
4892	18	0	.cfi_def_cfa	0	2	7	8
4892	19	0	.cfi_endproc	0	0	0	0
4912	0	0	.cfi_startproc	0	0	0	0
4912	0	1	.cfi_lsda	0	1	255	0
4912	0	2	.cfi_personality	0	1	255	0
4912	0	3	.cfi_def_cfa	0	2	7	8
4912	0	4	.cfi_offset	0	2	16	-8
4912	1	0	.cfi_def_cfa_offset	0	1	16	0
4912	1	1	.cfi_offset	0	2	6	-16
4912	4	0	.cfi_def_cfa_register	0	1	6	0
4950	16	0	.cfi_def_cfa	0	2	7	8
4950	17	0	.cfi_endproc	0	0	0	0
4968	0	0	.cfi_startproc	0	0	0	0
4968	0	1	.cfi_lsda	0	1	255	0
4968	0	2	.cfi_personality	0	1	255	0
4968	0	3	.cfi_def_cfa	0	2	7	8
4968	0	4	.cfi_offset	0	2	16	-8
4968	1	0	.cfi_def_cfa_offset	0	1	16	0
4968	1	1	.cfi_offset	0	2	6	-16
4968	4	0	.cfi_def_cfa_register	0	1	6	0
5020	27	0	.cfi_def_cfa	0	2	7	8
5020	28	0	.cfi_endproc	0	0	0	0
5056	0	0	.cfi_startproc	0	0	0	0
5056	0	1	.cfi_lsda	0	1	255	0
5056	0	2	.cfi_personality	0	1	255	0
5056	0	3	.cfi_def_cfa	0	2	7	8
5056	0	4	.cfi_offset	0	2	16	-8
5056	6	0	.cfi_def_cfa_offset	0	1	16	0
5056	6	1	.cfi_offset	0	2	15	-16
5056	15	0	.cfi_def_cfa_offset	0	1	24	0
5056	15	1	.cfi_offset	0	2	14	-24
5056	20	0	.cfi_def_cfa_offset	0	1	32	0
5056	20	1	.cfi_offset	0	2	13	-32
5056	25	0	.cfi_def_cfa_offset	0	1	40	0
5056	25	1	.cfi_offset	0	2	12	-40
5056	29	0	.cfi_def_cfa_offset	0	1	48	0
5056	29	1	.cfi_offset	0	2	6	-48
5056	37	0	.cfi_def_cfa_offset	0	1	56	0
5056	37	1	.cfi_offset	0	2	3	-56
5056	44	0	.cfi_def_cfa_offset	0	1	64	0
5142	4	0	.cfi_def_cfa_offset	0	1	56	0
5142	5	0	.cfi_def_cfa_offset	0	1	48	0
5142	6	0	.cfi_def_cfa_offset	0	1	40	0
5142	8	0	.cfi_def_cfa_offset	0	1	32	0
5142	10	0	.cfi_def_cfa_offset	0	1	24	0
5142	12	0	.cfi_def_cfa_offset	0	1	16	0
5142	14	0	.cfi_def_cfa_offset	0	1	8	0
5142	15	0	.cfi_endproc	0	0	0	0
5168	0	0	.cfi_startproc	0	0	0	0
5168	0	1	.cfi_lsda	0	1	255	0
5168	0	2	.cfi_personality	0	1	255	0
5168	0	3	.cfi_def_cfa	0	2	7	8
5168	0	4	.cfi_offset	0	2	16	-8
5168	5	0	.cfi_endproc	0	0	0	0
