4128	jumped from another function
4320	jumped from another function
4320	after complete function
4384	after complete function
4384	consecutive function pointers
4464	isolated pointer
4694	isolated pointer
4768	consecutive function pointers
4840	consecutive function pointers
4968	consecutive function pointers
